0  0  25  3   0 320  240  1 254.839  227.749  2 415.931  238.842
1  0  25  3   0 352  240  1 261.305  227.94  2 426.464  238.007
0  1  25  3   0 320  272  1 253.54  263.288  2 416.909  270.447
0  0  26  3   0 320  240  1 289.581  229.062  2 386.52  239.552
-5  0  25  3   0 160  240  1 229.376  226.987  2 349.727  244.088
0  -4  25  3   0 320  112  1 260.045  85.2413  2 412.004  112.03
0  0  22  3   0 320  240  1 145.751  223.619  2 510.833  236.549
1  2  28  3   0 348.571  297.143  1 364.736  303.663  2 345.347  298.058
5  4  28  3   0 462.857  354.286  1 414.646  407.05  2 390.48  339.733
8  7  31  3   0 526.452  420.645  1 600.463  583.206  2 354.57  395.82
7  0  28  3   0 520  240  1 457.821  234.96  2 405.57  235.859
