0  0  200  3   0 320  240  1 320  320  2 320  160
1  0  200  3   0 324  240  1 324.003  320  2 324  160
0  2  200  3   0 320  248  1 320  328  2 320  168
0  0  203  3   0 320  240  1 320  318.818  2 320  161.182
5  0  200  3   0 340  240  1 339.999  320  2 340  160
0  6  200  3   0 320  264  1 320  344  2 320  184
0  0  206  3   0 320  240  1 320  317.67  2 320  162.33
-3  0  200  3   0 308  240  1 308  320  2 308  160
0  -5  200  3   0 320  220  1 320  300  2 320  140
0  0  193  3   0 320  240  1 320  322.901  2 320  157.098
1  2  203  3   0 323.941  247.882  1 323.945  326.7  2 323.941  169.064
0  0  200  3   0 320  240  1 320  320  2 320  160
5  4  203  3   0 339.704  255.764  1 339.705  334.581  2 339.704  176.946
6  -6  204  3   0 343.529  216.471  1 343.53  294.902  2 343.529  138.039
