0  0  200  3   0 320  240  1 320  240  2 320  240
1  0  200  3   0 324  240  1 323.633  240  2 324.444  240
0  2  200  3   0 320  248  1 320  247.272  2 320  248.889
0  0  203  3   0 320  240  1 320  240  2 320  240
1  2  203  3   0 323.941  247.882  1 323.591  247.176  2 324.372  248.743
-6  -4  193  3   0 295.13  223.42  1 297.465  224.975  2 292.254  221.503
4  1  206  3   0 335.534  243.883  1 334.159  243.537  2 337.204  244.301
4  3  209  3   0 335.311  251.483  1 333.974  250.479  2 336.931  252.698
5  4  205  3   0 339.512  255.61  1 337.778  254.223  2 341.622  257.297
6  -7  209  3   0 342.967  213.206  1 340.961  215.545  2 345.397  210.37
7  0  193  3   0 349.016  240  1 346.292  240  2 352.37  240
